[gd_scene load_steps=3 format=2]

[ext_resource path="res://assets/cactus.png" type="Texture" id=1]

[sub_resource type="RectangleShape2D" id=1]
extents = Vector2( 21.3487, 23.0486 )

[node name="Cactus" type="Area2D" groups=[
"obstacles",
]]
scale = Vector2( 1.17, 1.23 )

[node name="CollisionShape2D" type="CollisionShape2D" parent="."]
shape = SubResource( 1 )

[node name="Sprite" type="Sprite" parent="."]
position = Vector2( -1.49491, -1.83125 )
scale = Vector2( 0.136965, 0.0880456 )
texture = ExtResource( 1 )
