[gd_scene load_steps=5 format=2]

[ext_resource path="res://Hud.gdns" type="Script" id=1]
[ext_resource path="res://assets/Kenney Bold.ttf" type="DynamicFontData" id=2]

[sub_resource type="DynamicFont" id=1]
size = 48
font_data = ExtResource( 2 )

[sub_resource type="DynamicFont" id=2]
size = 30
font_data = ExtResource( 2 )

[node name="Hud" type="CanvasLayer"]
script = ExtResource( 1 )

[node name="MessageLabel" type="Label" parent="."]
anchor_top = 0.5
anchor_right = 1.0
anchor_bottom = 0.5
margin_top = -7.0
margin_bottom = 7.0
custom_fonts/font = SubResource( 1 )
text = "Coin Rush"
align = 1
valign = 1

[node name="MarginContainer" type="MarginContainer" parent="."]
anchor_right = 1.0
custom_constants/margin_right = 10
custom_constants/margin_top = 10
custom_constants/margin_left = 10
custom_constants/margin_bottom = 10

[node name="ScoreLabel" type="Label" parent="MarginContainer"]
margin_left = 10.0
margin_top = 10.0
margin_right = 470.0
margin_bottom = 82.0
custom_fonts/font = SubResource( 1 )
text = "0"
valign = 1

[node name="TimeLabel" type="Label" parent="MarginContainer"]
margin_left = 10.0
margin_top = 10.0
margin_right = 470.0
margin_bottom = 82.0
custom_fonts/font = SubResource( 1 )
text = "0"
align = 2
valign = 1

[node name="MessageTimer" type="Timer" parent="."]
wait_time = 2.0
one_shot = true

[node name="StartButton" type="Button" parent="."]
anchor_left = 0.5
anchor_top = 1.0
anchor_right = 0.5
anchor_bottom = 1.0
margin_left = -171.0
margin_top = -150.0
margin_right = 186.0
margin_bottom = -50.0
custom_fonts/font = SubResource( 2 )
text = "Start"
[connection signal="timeout" from="MessageTimer" to="." method="_on_MessageTimer_timeout"]
[connection signal="pressed" from="StartButton" to="." method="_on_StartButton_pressed"]
